%wygenerowane

iloscUczacego = 2000;
centrum1 = 0;
sigma1 = 1;
centrum2 = 1;
sigma2 = 1;
ciagUczacy = [
-1.67494, 1;
-0.501248, 1;
-0.991309, 1;
2.0183, 1;
-1.82725, 1;
0.626941, 1;
-1.49771, 1;
-0.165041, 1;
0.137785, 1;
-0.390337, 1;
0.689573, 1;
0.810575, 1;
-0.107811, 1;
2.89906, 1;
-0.454338, 1;
-0.916419, 1;
-0.646852, 1;
0.121049, 1;
2.40187, 1;
1.53424, 1;
0.30245, 1;
-0.191462, 1;
0.838383, 1;
-0.482287, 1;
0.728154, 1;
-0.075016, 1;
-2.13886, 1;
0.262082, 1;
1.13276, 1;
-0.221772, 1;
1.39749, 1;
-1.20734, 1;
0.552173, 1;
-0.664699, 1;
-1.59768, 1;
-0.239057, 1;
1.10554, 1;
-0.198844, 1;
-1.39156, 1;
-2.15668, 1;
0.269425, 1;
-0.576874, 1;
2.26674, 1;
0.610322, 1;
1.85817, 1;
-0.556568, 1;
-0.417239, 1;
-0.851264, 1;
-0.199352, 1;
-0.00784021, 1;
-0.869483, 1;
0.568149, 1;
0.090833, 1;
-0.230075, 1;
-0.535674, 1;
0.462742, 1;
-0.634554, 1;
-2.87668, 1;
-0.072415, 1;
0.94895, 1;
1.54029, 1;
-0.677526, 1;
-1.0719, 1;
-0.677074, 1;
1.18499, 1;
2.23106, 1;
-0.549907, 1;
0.348328, 1;
0.426779, 1;
1.47412, 1;
0.318888, 1;
-0.179112, 1;
0.195203, 1;
0.402053, 1;
-1.21207, 1;
0.511108, 1;
0.00617871, 1;
0.202523, 1;
-0.258666, 1;
1.24913, 1;
1.36898, 1;
1.31974, 1;
-0.426721, 1;
1.9327, 1;
-0.496338, 1;
0.306533, 1;
0.997393, 1;
0.724536, 1;
0.949599, 1;
0.60776, 1;
0.389034, 1;
0.327309, 1;
0.0331702, 1;
1.00937, 1;
-1.72872, 1;
-0.748098, 1;
0.223526, 1;
1.0343, 1;
-1.40146, 1;
-0.310574, 1;
-0.156191, 1;
0.984462, 1;
-0.251739, 1;
1.3519, 1;
-0.762695, 1;
0.204989, 1;
-1.18569, 1;
0.280779, 1;
-0.677184, 1;
-1.73947, 1;
1.42905, 1;
0.1512, 1;
-0.664036, 1;
-1.00317, 1;
-1.1605, 1;
0.531702, 1;
-0.327358, 1;
1.34053, 1;
-0.122538, 1;
-1.60621, 1;
1.41629, 1;
0.827357, 1;
0.65892, 1;
0.464708, 1;
-1.36623, 1;
-1.78829, 1;
-0.658862, 1;
0.172858, 1;
0.305335, 1;
-1.50671, 1;
-0.632468, 1;
-0.717265, 1;
0.0759224, 1;
-0.565512, 1;
-1.07597, 1;
0.0959592, 1;
-1.35213, 1;
-0.144602, 1;
-0.0288102, 1;
0.156277, 1;
-0.910948, 1;
-0.707933, 1;
-0.218673, 1;
0.876661, 1;
1.55364, 1;
-0.0602996, 1;
-0.109743, 1;
0.4372, 1;
1.09405, 1;
0.296329, 1;
0.972124, 1;
-0.447344, 1;
0.526684, 1;
0.892336, 1;
-1.33576, 1;
-1.79809, 1;
-1.02063, 1;
0.126532, 1;
1.7408, 1;
0.0179997, 1;
-0.497038, 1;
0.614264, 1;
-0.710733, 1;
-1.28749, 1;
-1.23928, 1;
-0.253601, 1;
1.34038, 1;
-1.13168, 1;
0.805374, 1;
-0.573533, 1;
-1.02139, 1;
-0.778905, 1;
-0.175535, 1;
1.26969, 1;
-1.80498, 1;
0.342904, 1;
0.59192, 1;
-0.461138, 1;
-0.162376, 1;
0.508294, 1;
-1.273, 1;
-1.2451, 1;
0.732902, 1;
0.931597, 1;
-0.0865864, 1;
-0.616066, 1;
0.766043, 1;
-0.91034, 1;
-0.130143, 1;
-0.509403, 1;
-0.138176, 1;
0.57065, 1;
0.874664, 1;
-0.00441234, 1;
0.369378, 1;
-1.29336, 1;
0.170609, 1;
-0.720621, 1;
0.0908841, 1;
-1.26537, 1;
0.175403, 1;
-0.798968, 1;
0.955603, 1;
-0.666893, 1;
0.893337, 1;
-1.72454, 1;
0.0124139, 1;
-2.1024, 1;
-0.71197, 1;
-1.01889, 1;
1.34842, 1;
2.36109, 1;
0.715031, 1;
1.25621, 1;
-0.588232, 1;
0.718866, 1;
-0.946932, 1;
-1.13871, 1;
0.358775, 1;
1.32674, 1;
-0.0413751, 1;
-1.19452, 1;
-0.102307, 1;
0.152449, 1;
-0.990252, 1;
1.33563, 1;
0.855988, 1;
-0.918049, 1;
1.78938, 1;
0.209239, 1;
0.396806, 1;
1.14558, 1;
-1.4143, 1;
0.584, 1;
0.427886, 1;
-0.346072, 1;
1.46823, 1;
-1.44124, 1;
0.543879, 1;
-0.865427, 1;
-0.639182, 1;
1.19077, 1;
0.599732, 1;
-0.281259, 1;
-0.44657, 1;
-1.527, 1;
-0.707195, 1;
2.03833, 1;
-1.263, 1;
-0.535109, 1;
-0.00372438, 1;
-0.923034, 1;
-0.893794, 1;
0.487824, 1;
1.20056, 1;
0.122856, 1;
-0.459643, 1;
0.367449, 1;
0.687115, 1;
0.869266, 1;
-0.503881, 1;
0.842518, 1;
-0.576463, 1;
-1.28878, 1;
-0.709828, 1;
0.36892, 1;
-0.519523, 1;
-0.904492, 1;
-0.665766, 1;
0.618501, 1;
0.577032, 1;
0.166683, 1;
-0.932436, 1;
0.091466, 1;
0.303418, 1;
0.842715, 1;
0.648669, 1;
-2.01498, 1;
0.711903, 1;
-0.797532, 1;
-0.472248, 1;
0.353612, 1;
-0.487834, 1;
0.441311, 1;
-0.632526, 1;
0.135501, 1;
0.798087, 1;
-0.344596, 1;
0.381072, 1;
-0.0612444, 1;
0.75354, 1;
1.08215, 1;
-0.643857, 1;
0.63425, 1;
-0.493645, 1;
-0.107421, 1;
1.33784, 1;
0.47772, 1;
-0.701643, 1;
-1.48881, 1;
-0.576175, 1;
0.855899, 1;
1.21902, 1;
0.162049, 1;
-0.480759, 1;
-0.124869, 1;
-0.510146, 1;
-0.845102, 1;
0.0709181, 1;
-0.0291894, 1;
-0.494928, 1;
-0.588834, 1;
0.590014, 1;
-0.298469, 1;
-0.198715, 1;
1.0116, 1;
-0.175239, 1;
-1.5711, 1;
1.78063, 1;
-0.736358, 1;
0.19734, 1;
-0.0513226, 1;
-0.35547, 1;
-0.37795, 1;
0.768014, 1;
2.08975, 1;
0.865358, 1;
-0.0819607, 1;
0.501794, 1;
-1.06655, 1;
-1.00762, 1;
-1.41707, 1;
-0.802618, 1;
-1.58235, 1;
-2.725, 1;
-1.16224, 1;
0.711269, 1;
-0.130251, 1;
0.223951, 1;
-1.15274, 1;
0.368551, 1;
2.66052, 1;
-0.680722, 1;
0.728995, 1;
0.250694, 1;
0.379403, 1;
-0.79306, 1;
-1.07501, 1;
-0.4806, 1;
-0.105739, 1;
-1.075, 1;
-1.43154, 1;
-2.25703, 1;
0.450196, 1;
-2.31634, 1;
-0.101112, 1;
-0.633338, 1;
1.82671, 1;
-0.0872431, 1;
0.774795, 1;
0.318121, 1;
0.171353, 1;
-0.742265, 1;
-0.0620474, 1;
0.691687, 1;
0.356692, 1;
1.30585, 1;
-0.27125, 1;
0.370095, 1;
1.44739, 1;
-1.19294, 1;
1.16949, 1;
-1.41866, 1;
0.952249, 1;
0.219155, 1;
-1.83799, 1;
-0.532789, 1;
1.22579, 1;
0.29, 1;
-0.665574, 1;
0.568041, 1;
-1.07771, 1;
-0.685531, 1;
-0.532245, 1;
-0.786503, 1;
0.478115, 1;
-1.48863, 1;
1.00143, 1;
0.0117998, 1;
0.368106, 1;
-0.759779, 1;
-0.744419, 1;
-0.448745, 1;
-0.463675, 1;
0.380814, 1;
0.873927, 1;
0.888899, 1;
-0.0218229, 1;
1.11676, 1;
0.806572, 1;
-0.876706, 1;
0.505278, 1;
-1.42466, 1;
-2.0272, 1;
-0.234857, 1;
-0.520791, 1;
0.406543, 1;
0.864485, 1;
0.577458, 1;
1.42112, 1;
-0.53127, 1;
-0.0710242, 1;
0.299498, 1;
0.66736, 1;
1.01164, 1;
2.92592, 1;
-1.06579, 1;
1.11937, 1;
-0.413462, 1;
2.10255, 1;
-0.892478, 1;
-0.638979, 1;
-0.195223, 1;
0.344915, 1;
0.0384525, 1;
0.408482, 1;
-1.20046, 1;
-0.581048, 1;
-0.525603, 1;
-0.416005, 1;
-0.164189, 1;
0.485242, 1;
0.262405, 1;
0.707445, 1;
0.27282, 1;
-0.40889, 1;
-0.72451, 1;
1.15472, 1;
0.663732, 1;
0.972307, 1;
-0.153604, 1;
0.308759, 1;
-2.89474, 1;
0.526282, 1;
0.0793633, 1;
0.891941, 1;
-1.8645, 1;
0.297404, 1;
0.29712, 1;
2.37337, 1;
0.868934, 1;
-0.649318, 1;
0.344358, 1;
0.118058, 1;
1.38466, 1;
-1.10006, 1;
0.0245313, 1;
0.492862, 1;
-1.15923, 1;
-1.30023, 1;
-0.545787, 1;
-0.0960599, 1;
-1.67312, 1;
0.746465, 1;
-1.10458, 1;
3.00421, 1;
-0.839682, 1;
0.122867, 1;
0.568829, 1;
-0.126615, 1;
0.26809, 1;
-0.46459, 1;
-1.118, 1;
0.2462, 1;
1.26997, 1;
-0.18267, 1;
-2.75708, 1;
-0.225845, 1;
0.348243, 1;
-1.01555, 1;
-1.12076, 1;
0.055561, 1;
-0.404859, 1;
-0.752942, 1;
0.635979, 1;
-0.209635, 1;
1.31519, 1;
-0.889052, 1;
-0.765631, 1;
-1.33704, 1;
1.45164, 1;
0.842408, 1;
-0.0727279, 1;
-0.519662, 1;
1.23079, 1;
0.026872, 1;
-1.59596, 1;
-1.13369, 1;
0.339367, 1;
-0.901008, 1;
-0.841039, 1;
0.157744, 1;
0.989483, 1;
0.0377996, 1;
-1.39169, 1;
0.88979, 1;
2.24556, 1;
0.0224914, 1;
-0.311131, 1;
-0.346078, 1;
1.04534, 1;
1.04632, 1;
0.374562, 1;
0.989333, 1;
0.409834, 1;
-0.0778634, 1;
-0.128551, 1;
0.723119, 1;
1.51837, 1;
-0.0313731, 1;
-1.95855, 1;
0.0534516, 1;
-0.770636, 1;
-1.27546, 1;
0.993134, 1;
0.360788, 1;
2.5027, 1;
-0.432618, 1;
-1.44543, 1;
-0.00202475, 1;
0.86401, 1;
1.41056, 1;
-0.189714, 1;
-0.446109, 1;
0.0808632, 1;
-0.335173, 1;
-0.980793, 1;
1.5935, 1;
0.620331, 1;
0.408634, 1;
1.14303, 1;
-0.120196, 1;
-1.51527, 1;
-1.66916, 1;
0.506118, 1;
1.38122, 1;
-0.621666, 1;
-0.24339, 1;
0.967726, 1;
0.279842, 1;
0.557535, 1;
0.463532, 1;
-0.243909, 1;
1.22325, 1;
0.984476, 1;
-0.189735, 1;
-0.69098, 1;
1.38051, 1;
-0.697626, 1;
1.18645, 1;
-0.0222872, 1;
0.578987, 1;
0.628948, 1;
-1.05024, 1;
1.3555, 1;
0.305485, 1;
0.419822, 1;
0.476465, 1;
-1.31122, 1;
0.610804, 1;
1.1756, 1;
0.347326, 1;
0.115287, 1;
0.839566, 1;
1.08535, 1;
0.00222767, 1;
0.136593, 1;
1.18554, 1;
-0.983445, 1;
0.120055, 1;
-0.223103, 1;
-0.458774, 1;
0.568741, 1;
-1.45031, 1;
-0.603401, 1;
-0.00294962, 1;
-0.116658, 1;
-1.01568, 1;
-1.70399, 1;
1.36017, 1;
-1.10988, 1;
0.214428, 1;
-0.624756, 1;
2.62818, 1;
-2.05491, 1;
0.539423, 1;
-0.704481, 1;
0.209454, 1;
-2.07272, 1;
1.78791, 1;
1.17176, 1;
-0.118853, 1;
-1.27088, 1;
-0.511424, 1;
1.0212, 1;
-0.415844, 1;
1.24532, 1;
-0.211356, 1;
-0.17387, 1;
0.368493, 1;
-1.29612, 1;
-2.0924, 1;
1.62831, 1;
0.854177, 1;
0.424783, 1;
1.69504, 1;
-1.55366, 1;
0.459465, 1;
0.945412, 1;
1.55417, 1;
-0.0694363, 1;
0.536581, 1;
-0.712875, 1;
0.636495, 1;
0.0391427, 1;
0.831745, 1;
0.566021, 1;
1.14898, 1;
0.853227, 1;
0.658524, 1;
0.732779, 1;
1.10672, 1;
-1.18008, 1;
-1.73607, 1;
-2.03327, 1;
-0.635942, 1;
0.573691, 1;
-0.427895, 1;
-0.342618, 1;
0.619485, 1;
1.39688, 1;
0.278457, 1;
0.813733, 1;
-0.620276, 1;
0.090229, 1;
1.98887, 1;
-0.994879, 1;
0.0841118, 1;
0.216962, 1;
1.60163, 1;
0.521153, 1;
0.574348, 1;
1.07459, 1;
-0.481912, 1;
-0.589648, 1;
-0.84435, 1;
1.27716, 1;
-0.689842, 1;
-1.54556, 1;
0.369765, 1;
1.27863, 1;
1.50069, 1;
0.294444, 1;
-0.24931, 1;
0.94917, 1;
-0.205272, 1;
0.270896, 1;
0.0335096, 1;
0.267341, 1;
-1.46956, 1;
-0.269001, 1;
-1.2264, 1;
0.0327049, 1;
-1.7899, 1;
-0.630241, 1;
-0.916767, 1;
0.065358, 1;
0.520062, 1;
0.45352, 1;
-1.84657, 1;
0.528235, 1;
0.304368, 1;
1.13175, 1;
-1.13058, 1;
-1.99851, 1;
0.234376, 1;
-1.48532, 1;
-0.195853, 1;
0.222904, 1;
0.954133, 1;
0.0229083, 1;
-1.43556, 1;
0.469132, 1;
1.72604, 1;
1.10558, 1;
-0.873424, 1;
1.48144, 1;
0.530026, 1;
-1.48429, 1;
1.4598, 1;
0.947522, 1;
-0.436949, 1;
0.128311, 1;
0.911774, 1;
1.82945, 1;
-0.128139, 1;
-0.629469, 1;
-0.916843, 1;
-0.0629181, 1;
1.14394, 1;
1.34334, 1;
-1.7301, 1;
0.123434, 1;
0.0891011, 1;
-1.24586, 1;
0.650535, 1;
0.792926, 1;
0.660726, 1;
-1.15413, 1;
-0.476944, 1;
-1.0421, 1;
-0.0289903, 1;
-0.505563, 1;
-0.00570306, 1;
0.573939, 1;
-1.85924, 1;
-0.515886, 1;
-0.179383, 1;
0.547825, 1;
0.784306, 1;
0.779633, 1;
0.427682, 1;
1.09546, 1;
-0.327018, 1;
0.22612, 1;
2.33042, 1;
-0.924524, 1;
-0.953067, 1;
1.15138, 1;
-0.980682, 1;
-1.76958, 1;
1.43531, 1;
-0.330654, 1;
2.04964, 1;
0.00141837, 1;
0.536163, 1;
-1.86471, 1;
-0.742946, 1;
-0.617865, 1;
2.29051, 1;
1.32459, 1;
1.58665, 1;
-0.090647, 1;
1.57533, 1;
-0.219937, 1;
0.880869, 1;
0.319022, 1;
-0.598226, 1;
1.7482, 1;
-0.845948, 1;
-1.54971, 1;
1.18755, 1;
1.23487, 1;
-0.762188, 1;
0.377236, 1;
-0.0931401, 1;
-0.478495, 1;
-0.11984, 1;
-1.04402, 1;
0.845602, 1;
0.119085, 1;
0.0626594, 1;
-0.104069, 1;
-0.437963, 1;
-0.527153, 1;
-0.291484, 1;
0.895444, 1;
-0.102772, 1;
-0.2352, 1;
1.05286, 1;
-0.346742, 1;
-0.553063, 1;
1.22872, 1;
-0.895073, 1;
2.13585, 1;
-0.335497, 1;
1.08956, 1;
1.05606, 1;
0.176442, 1;
-0.699172, 1;
-0.675023, 1;
0.627688, 1;
0.729815, 1;
-0.493908, 1;
-0.0207933, 1;
0.21153, 1;
-0.409361, 1;
1.50311, 1;
-1.12227, 1;
-0.166866, 1;
-0.243058, 1;
0.11413, 1;
-1.14551, 1;
-0.0937926, 1;
-0.486336, 1;
-1.35377, 1;
-2.99775, 1;
-2.22801, 1;
-1.36253, 1;
-1.64352, 1;
-1.06736, 1;
-0.85421, 1;
0.443435, 1;
1.16496, 1;
0.834223, 1;
-0.820066, 1;
0.132081, 1;
0.955393, 1;
0.318756, 1;
0.590031, 1;
2.66884, 1;
-2.65374, 1;
-0.0745736, 1;
0.0291189, 1;
-1.54952, 1;
-0.512617, 1;
-1.02011, 1;
0.284904, 1;
0.0247579, 1;
-0.648451, 1;
0.275283, 1;
-1.10789, 1;
0.441533, 1;
-0.928533, 1;
1.21577, 1;
-0.829035, 1;
-2.18049, 1;
0.80882, 1;
0.492405, 1;
-0.36374, 1;
-0.15954, 1;
0.162345, 1;
-0.972659, 1;
-0.908994, 1;
-2.46383, 1;
1.73654, 1;
0.0522501, 1;
-1.89973, 1;
0.983419, 1;
1.09113, 1;
1.17795, 1;
0.945474, 1;
-0.122339, 1;
3.02777, 1;
0.22293, 1;
-0.732093, 1;
-0.356999, 1;
0.0298611, 1;
-0.4678, 1;
0.000184092, 1;
-0.720566, 1;
0.831633, 1;
-0.0608635, 1;
-0.961823, 1;
-0.1121, 1;
0.262979, 1;
-0.769685, 1;
0.00380454, 1;
-2.02952, 1;
0.620722, 1;
-1.4922, 1;
1.3546, 1;
-0.536563, 1;
-0.555282, 1;
-1.04046, 1;
0.617498, 1;
-0.30653, 1;
-1.47791, 1;
-0.422746, 1;
0.313401, 1;
-0.0601893, 1;
0.365391, 1;
0.141621, 1;
0.705214, 1;
0.249066, 1;
-0.177017, 1;
0.20626, 1;
-1.79519, 1;
-0.187718, 1;
0.548735, 1;
-0.616104, 1;
0.323876, 1;
0.275475, 1;
-1.05265, 1;
-0.0940295, 1;
-1.0584, 1;
0.140407, 1;
-1.00647, 1;
-0.55751, 1;
-0.308033, 1;
-1.57469, 1;
0.286249, 1;
0.927463, 1;
-0.485349, 1;
1.64445, 1;
-1.22527, 1;
0.34987, 1;
-0.104827, 1;
0.111946, 1;
-0.189772, 1;
1.17599, 1;
0.122529, 1;
-0.696784, 1;
-1.00592, 1;
-0.471466, 1;
-0.0969878, 1;
0.675397, 1;
-1.5735, 1;
-0.424715, 1;
0.0281837, 1;
0.330375, 1;
-1.25007, 1;
0.991421, 1;
1.74194, 1;
-2.47019, 1;
-1.00078, 1;
-0.71838, 1;
0.541922, 1;
-0.075929, 1;
0.00968769, 1;
0.150967, 1;
3.98283, 1;
0.234597, 1;
1.26514, 1;
-0.679294, 1;
-0.811633, 1;
1.64793, 1;
-0.148739, 1;
0.963961, 1;
-0.209669, 1;
-1.56315, 1;
1.45575, 1;
0.0491589, 1;
-1.05086, 1;
0.290861, 1;
1.02706, 1;
-0.50079, 1;
0.48249, 1;
0.537594, 1;
0.974774, 1;
-0.983918, 1;
0.20324, 1;
-0.189708, 1;
0.199316, 1;
0.688719, 1;
0.671742, 1;
1.18628, 1;
-1.3772, 1;
-1.40976, 1;
2.24888, 1;
2.11981, 1;
0.388479, 1;
1.51557, 1;
-0.0907879, 1;
-0.666886, 1;
0.137996, 1;
0.850425, 1;
-0.0426527, 1;
1.07065, 1;
-0.552339, 1;
-0.974068, 1;
-0.516139, 1;
0.80669, 1;
-0.588799, 1;
-1.29279, 1;
-0.727254, 1;
-0.440164, 1;
0.396992, 1;
0.299313, 1;
-1.3259, 1;
-0.114023, 1;
-0.32116, 1;
0.845178, 1;
0.737748, 1;
-0.097663, 1;
1.15001, 1;
-2.3568, 1;
-0.287664, 1;
0.0304534, 1;
-0.579098, 1;
0.388331, 1;
-0.936213, 1;
-2.20354, 1;
1.00479, 1;
-0.182198, 1;
0.734166, 1;
-0.0636871, 1;
-0.316223, 1;
-0.17424, 1;
-0.814001, 1;
-0.389544, 2;
1.20994, 2;
1.84409, 2;
1.35176, 2;
1.42214, 2;
0.340196, 2;
1.77582, 2;
0.0440757, 2;
0.819534, 2;
0.443992, 2;
-0.463957, 2;
-0.36037, 2;
0.213029, 2;
-0.297948, 2;
0.338667, 2;
-0.466998, 2;
-0.62916, 2;
-1.37484, 2;
1.35674, 2;
0.279101, 2;
2.67405, 2;
1.29691, 2;
1.59145, 2;
0.393152, 2;
0.890785, 2;
1.75409, 2;
1.33932, 2;
1.1359, 2;
0.418792, 2;
0.402835, 2;
1.00015, 2;
-0.14209, 2;
2.7053, 2;
0.935781, 2;
0.183989, 2;
3.41487, 2;
0.311803, 2;
-0.0233252, 2;
1.71263, 2;
1.57064, 2;
1.08815, 2;
0.868709, 2;
-0.465853, 2;
1.38017, 2;
2.3779, 2;
0.522114, 2;
1.60056, 2;
1.18953, 2;
-1.30718, 2;
0.998986, 2;
0.717925, 2;
2.0062, 2;
2.38755, 2;
0.351621, 2;
0.263824, 2;
1.49272, 2;
1.73746, 2;
-0.723361, 2;
0.511637, 2;
0.780163, 2;
0.232694, 2;
-0.312619, 2;
0.13708, 2;
0.307637, 2;
1.68028, 2;
0.987377, 2;
0.252664, 2;
-0.222369, 2;
-0.284532, 2;
1.33965, 2;
1.64296, 2;
3.72623, 2;
0.392116, 2;
1.27313, 2;
2.70365, 2;
2.13724, 2;
-0.374546, 2;
1.255, 2;
0.118566, 2;
0.622641, 2;
0.306588, 2;
0.498523, 2;
-0.0321602, 2;
1.16319, 2;
1.78011, 2;
1.0488, 2;
-0.531377, 2;
0.289402, 2;
-0.0937489, 2;
-0.442853, 2;
0.869717, 2;
1.11232, 2;
0.423462, 2;
2.61659, 2;
1.17196, 2;
0.19617, 2;
0.268978, 2;
-1.48741, 2;
-0.302634, 2;
1.2499, 2;
0.181559, 2;
2.60329, 2;
0.712728, 2;
2.88576, 2;
0.523523, 2;
1.65739, 2;
1.72456, 2;
0.155143, 2;
0.122473, 2;
0.641094, 2;
3.12249, 2;
1.20917, 2;
-0.433442, 2;
1.37497, 2;
2.47995, 2;
0.31041, 2;
0.959075, 2;
-0.653577, 2;
0.96325, 2;
0.244486, 2;
0.994399, 2;
1.5348, 2;
1.62269, 2;
0.407753, 2;
2.61358, 2;
-0.186702, 2;
1.25371, 2;
0.182466, 2;
2.45343, 2;
1.5208, 2;
0.0902682, 2;
0.850306, 2;
1.61793, 2;
0.319913, 2;
0.122141, 2;
1.20554, 2;
0.206965, 2;
1.16822, 2;
0.721267, 2;
1.73317, 2;
0.874633, 2;
0.167156, 2;
-0.244953, 2;
0.105237, 2;
-0.120673, 2;
0.948022, 2;
0.159236, 2;
2.39359, 2;
1.55811, 2;
0.599254, 2;
1.45005, 2;
3.05505, 2;
1.10111, 2;
0.532609, 2;
1.8578, 2;
2.21152, 2;
0.258206, 2;
0.10041, 2;
0.569045, 2;
1.37474, 2;
2.02732, 2;
1.15312, 2;
-0.507699, 2;
0.838459, 2;
1.23856, 2;
0.0233804, 2;
0.668696, 2;
0.866126, 2;
0.97842, 2;
2.8775, 2;
0.546742, 2;
-1.2015, 2;
0.830192, 2;
1.78677, 2;
1.51083, 2;
2.25169, 2;
2.46338, 2;
0.392872, 2;
-0.560095, 2;
1.9721, 2;
1.04651, 2;
1.72608, 2;
2.31209, 2;
2.04943, 2;
-0.559771, 2;
-0.0534707, 2;
0.924989, 2;
-0.83204, 2;
1.55177, 2;
-0.269254, 2;
-0.165128, 2;
0.16495, 2;
0.365754, 2;
0.432628, 2;
0.661713, 2;
-0.40997, 2;
0.503676, 2;
-0.409589, 2;
-0.240777, 2;
0.810826, 2;
1.31488, 2;
0.902848, 2;
1.131, 2;
1.92192, 2;
1.68471, 2;
2.47793, 2;
0.817743, 2;
-0.106386, 2;
0.124515, 2;
1.37644, 2;
0.801329, 2;
0.588234, 2;
0.647041, 2;
1.2522, 2;
1.30126, 2;
0.49792, 2;
1.46299, 2;
0.9285, 2;
1.43968, 2;
1.77039, 2;
1.16241, 2;
0.713648, 2;
0.652305, 2;
2.64566, 2;
0.996809, 2;
1.70511, 2;
0.825048, 2;
2.68637, 2;
0.282673, 2;
1.17665, 2;
1.5675, 2;
2.01066, 2;
0.23651, 2;
1.77306, 2;
2.02029, 2;
-0.250152, 2;
-0.661885, 2;
2.42562, 2;
1.51275, 2;
1.39417, 2;
1.20099, 2;
-0.240176, 2;
1.12648, 2;
0.306347, 2;
0.642388, 2;
1.6751, 2;
2.87363, 2;
0.723738, 2;
0.0980594, 2;
0.828844, 2;
2.53642, 2;
0.609237, 2;
0.821726, 2;
0.827061, 2;
1.23195, 2;
2.36292, 2;
0.6739, 2;
0.26768, 2;
2.90538, 2;
-0.0934501, 2;
0.952722, 2;
1.26583, 2;
0.49118, 2;
1.45394, 2;
1.8925, 2;
-0.132696, 2;
-0.0880522, 2;
0.836597, 2;
0.440128, 2;
1.32673, 2;
0.802422, 2;
0.388515, 2;
-0.127171, 2;
0.505116, 2;
0.598839, 2;
1.04251, 2;
0.924061, 2;
0.163704, 2;
-0.446051, 2;
0.745156, 2;
0.766661, 2;
1.93918, 2;
1.44501, 2;
1.17962, 2;
-1.41951, 2;
2.23908, 2;
0.80858, 2;
1.5063, 2;
0.408402, 2;
1.34773, 2;
-0.862999, 2;
0.76372, 2;
1.50315, 2;
-0.442914, 2;
0.894763, 2;
1.26327, 2;
0.543623, 2;
0.275163, 2;
2.26434, 2;
1.1192, 2;
0.269988, 2;
2.17865, 2;
2.37348, 2;
0.903074, 2;
2.82634, 2;
0.315463, 2;
1.69906, 2;
1.3106, 2;
2.31706, 2;
0.0959373, 2;
-0.217828, 2;
2.98161, 2;
1.33723, 2;
-0.962452, 2;
1.37527, 2;
-0.248585, 2;
3.48044, 2;
-0.363574, 2;
1.1225, 2;
0.112944, 2;
1.65763, 2;
-0.233712, 2;
1.12425, 2;
2.28002, 2;
1.60508, 2;
0.957238, 2;
1.86279, 2;
1.83186, 2;
-0.779928, 2;
2.75964, 2;
1.56611, 2;
3.18915, 2;
1.97265, 2;
2.11626, 2;
0.248646, 2;
-0.162485, 2;
1.52063, 2;
3.12457, 2;
1.94926, 2;
1.24241, 2;
0.0977524, 2;
1.52694, 2;
0.664175, 2;
1.18317, 2;
1.38217, 2;
-0.0588975, 2;
1.4283, 2;
-0.537193, 2;
1.13535, 2;
0.822733, 2;
1.55197, 2;
0.279896, 2;
0.735014, 2;
1.80135, 2;
1.56396, 2;
1.90495, 2;
2.83515, 2;
0.222838, 2;
1.68237, 2;
0.934242, 2;
0.722305, 2;
0.537132, 2;
0.622257, 2;
1.72583, 2;
3.22271, 2;
1.16809, 2;
1.12273, 2;
-0.31361, 2;
0.894445, 2;
1.29273, 2;
0.530542, 2;
3.3969, 2;
-0.814376, 2;
-1.08021, 2;
1.47654, 2;
0.599791, 2;
-0.370318, 2;
0.243347, 2;
2.82478, 2;
1.72712, 2;
0.0214166, 2;
1.66927, 2;
1.23552, 2;
0.649584, 2;
1.24598, 2;
0.674732, 2;
-0.72537, 2;
0.178147, 2;
2.97182, 2;
-0.307002, 2;
2.06644, 2;
-1.47095, 2;
1.44878, 2;
1.50879, 2;
0.515751, 2;
0.153253, 2;
1.81655, 2;
2.44207, 2;
2.18576, 2;
1.08778, 2;
0.696342, 2;
1.06678, 2;
1.60912, 2;
2.16398, 2;
1.20539, 2;
0.81652, 2;
2.14811, 2;
2.39775, 2;
0.46729, 2;
0.122913, 2;
0.666975, 2;
1.48918, 2;
1.01118, 2;
-1.23186, 2;
0.557927, 2;
0.481743, 2;
0.614922, 2;
1.21326, 2;
1.13394, 2;
1.13449, 2;
1.42416, 2;
-1.26584, 2;
2.43579, 2;
-0.14186, 2;
1.21191, 2;
2.21806, 2;
0.207918, 2;
1.64981, 2;
2.37559, 2;
0.121627, 2;
2.19017, 2;
0.733263, 2;
-0.573748, 2;
3.47121, 2;
-0.545244, 2;
1.42443, 2;
2.54519, 2;
0.894039, 2;
0.974299, 2;
-0.0501492, 2;
1.0312, 2;
2.49277, 2;
2.94505, 2;
2.7904, 2;
1.50529, 2;
1.20134, 2;
0.913964, 2;
0.922998, 2;
0.874878, 2;
0.641192, 2;
-0.32578, 2;
-0.619516, 2;
-0.945955, 2;
0.122422, 2;
0.462451, 2;
0.501075, 2;
1.92045, 2;
0.531789, 2;
0.303878, 2;
-0.0699378, 2;
0.281422, 2;
1.7506, 2;
1.64731, 2;
1.57993, 2;
1.32275, 2;
0.342777, 2;
3.61949, 2;
0.274114, 2;
-0.46647, 2;
0.562707, 2;
1.21175, 2;
1.02702, 2;
1.87843, 2;
0.107051, 2;
2.69448, 2;
0.665396, 2;
-0.42471, 2;
2.30234, 2;
0.437925, 2;
0.140382, 2;
0.0873179, 2;
1.0368, 2;
2.83582, 2;
1.47281, 2;
1.75663, 2;
-0.599333, 2;
1.12032, 2;
1.1856, 2;
0.726326, 2;
-0.979982, 2;
2.01008, 2;
-0.564952, 2;
1.45171, 2;
1.542, 2;
2.06763, 2;
0.922329, 2;
0.862193, 2;
2.02935, 2;
0.935711, 2;
1.64254, 2;
1.10743, 2;
0.631756, 2;
-0.0492989, 2;
1.74094, 2;
1.71141, 2;
-0.737926, 2;
1.06517, 2;
-0.847221, 2;
0.631244, 2;
3.06577, 2;
1.39161, 2;
-0.840141, 2;
0.669092, 2;
2.32706, 2;
1.04809, 2;
0.431864, 2;
2.27733, 2;
1.58128, 2;
0.549883, 2;
0.782122, 2;
0.235463, 2;
1.06273, 2;
0.979308, 2;
2.98469, 2;
1.03057, 2;
1.45805, 2;
-0.187347, 2;
1.8895, 2;
0.985376, 2;
-0.409325, 2;
1.2652, 2;
0.417014, 2;
1.29266, 2;
0.181285, 2;
2.10942, 2;
2.18468, 2;
2.17509, 2;
2.67422, 2;
-0.079838, 2;
0.500182, 2;
0.188047, 2;
1.71115, 2;
-0.614778, 2;
0.0809531, 2;
-0.0906645, 2;
1.98461, 2;
1.52215, 2;
2.50103, 2;
1.43717, 2;
-1.10192, 2;
0.362853, 2;
0.542588, 2;
2.07449, 2;
0.00472931, 2;
-0.353261, 2;
1.47179, 2;
1.57737, 2;
3.19032, 2;
1.29052, 2;
1.60678, 2;
-1.04533, 2;
-0.844135, 2;
-0.224726, 2;
1.49212, 2;
0.0297215, 2;
2.63275, 2;
0.581725, 2;
2.54231, 2;
0.428364, 2;
0.2457, 2;
3.11478, 2;
2.82137, 2;
-0.133159, 2;
0.846191, 2;
1.72358, 2;
2.00162, 2;
2.76929, 2;
2.36368, 2;
0.881044, 2;
2.10187, 2;
-1.10245, 2;
0.185682, 2;
2.50276, 2;
2.74518, 2;
0.879689, 2;
0.0331095, 2;
1.23495, 2;
0.594941, 2;
2.49616, 2;
0.431332, 2;
-0.264369, 2;
-0.285803, 2;
0.906659, 2;
0.892623, 2;
1.60959, 2;
1.04399, 2;
1.30358, 2;
0.848235, 2;
0.62774, 2;
1.77017, 2;
0.424966, 2;
3.1429, 2;
0.72872, 2;
2.11232, 2;
1.36384, 2;
1.51221, 2;
2.05441, 2;
1.09149, 2;
-1.04497, 2;
0.834503, 2;
-1.09744, 2;
0.785501, 2;
-0.198354, 2;
1.79249, 2;
1.0596, 2;
1.21113, 2;
1.61839, 2;
-0.0565574, 2;
0.821861, 2;
1.50566, 2;
1.44159, 2;
0.524812, 2;
0.545632, 2;
-0.109473, 2;
1.41574, 2;
-1.66182, 2;
2.1791, 2;
0.437553, 2;
1.58053, 2;
0.564002, 2;
1.08923, 2;
0.302876, 2;
0.349741, 2;
0.807761, 2;
1.5733, 2;
1.94827, 2;
3.04282, 2;
-0.710562, 2;
0.906437, 2;
0.865664, 2;
1.61712, 2;
2.03535, 2;
1.01539, 2;
0.562518, 2;
1.39659, 2;
1.6144, 2;
2.23949, 2;
-0.0964363, 2;
1.49816, 2;
0.54296, 2;
3.29139, 2;
1.28328, 2;
0.416073, 2;
0.6552, 2;
0.503913, 2;
1.48996, 2;
0.601927, 2;
0.223708, 2;
1.989, 2;
0.816426, 2;
0.309205, 2;
-0.7503, 2;
1.44029, 2;
0.0592366, 2;
2.92873, 2;
0.291599, 2;
1.2931, 2;
1.81239, 2;
0.953654, 2;
-1.36654, 2;
2.42808, 2;
2.34345, 2;
0.0720113, 2;
-0.0863465, 2;
1.01307, 2;
1.95712, 2;
1.25472, 2;
0.84944, 2;
1.80734, 2;
0.937906, 2;
0.670833, 2;
-0.332564, 2;
0.936983, 2;
2.54516, 2;
2.01393, 2;
2.69303, 2;
-0.074158, 2;
-0.623597, 2;
-0.0586563, 2;
0.723663, 2;
1.48564, 2;
0.494366, 2;
2.1292, 2;
3.02132, 2;
2.34048, 2;
1.28954, 2;
0.954886, 2;
1.38142, 2;
3.13037, 2;
-1.19782, 2;
3.48346, 2;
0.240817, 2;
0.90092, 2;
1.09384, 2;
0.679549, 2;
1.19718, 2;
1.5529, 2;
1.24302, 2;
1.99897, 2;
-0.0712736, 2;
1.9581, 2;
-0.48959, 2;
0.922074, 2;
2.87643, 2;
0.592762, 2;
1.49935, 2;
-0.168744, 2;
0.325788, 2;
2.17345, 2;
1.6809, 2;
-0.457863, 2;
1.85728, 2;
0.180676, 2;
2.55438, 2;
2.01002, 2;
-0.287633, 2;
0.115391, 2;
0.761621, 2;
1.37307, 2;
0.839616, 2;
0.557143, 2;
1.42612, 2;
0.356586, 2;
-0.0885807, 2;
-0.407001, 2;
1.78675, 2;
0.841076, 2;
0.9542, 2;
0.225259, 2;
1.48648, 2;
1.24502, 2;
0.117369, 2;
0.875391, 2;
0.0556916, 2;
1.82986, 2;
0.535873, 2;
2.17682, 2;
1.90043, 2;
0.772094, 2;
1.07788, 2;
1.2507, 2;
0.00592711, 2;
0.328665, 2;
2.02151, 2;
0.253706, 2;
-0.4042, 2;
2.74078, 2;
2.08394, 2;
1.32176, 2;
-0.80811, 2;
0.695436, 2;
0.439128, 2;
2.70548, 2;
1.43778, 2;
1.59636, 2;
1.08681, 2;
-0.891136, 2;
2.41722, 2;
-0.124778, 2;
1.59824, 2;
0.684502, 2;
1.67042, 2;
1.29091, 2;
1.89924, 2;
1.53473, 2;
1.31129, 2;
3.05304, 2;
1.39804, 2;
2.10453, 2;
1.33784, 2;
1.89753, 2;
-0.592509, 2;
0.808956, 2;
2.04452, 2;
1.89262, 2;
0.688727, 2;
0.60656, 2;
-1.2879, 2;
-0.331625, 2;
1.54547, 2;
0.907658, 2;
0.760433, 2;
1.44777, 2;
1.83512, 2;
1.51836, 2;
3.68238, 2;
1.71045, 2;
0.448536, 2;
2.68091, 2;
1.85664, 2;
2.95394, 2;
0.547441, 2;
1.26848, 2;
0.412468, 2;
1.49067, 2;
0.335743, 2;
0.451771, 2;
0.976535, 2;
1.4669, 2;
0.352068, 2;
-1.07876, 2;
-0.515101, 2;
-0.197855, 2;
0.388215, 2;
2.25809, 2;
1.50172, 2;
1.2943, 2;
0.930609, 2;
1.1802, 2;
1.886, 2;
0.162088, 2;
1.4651, 2;
3.27572, 2;
0.326764, 2;
-0.527988, 2;
0.898334, 2;
1.6607, 2;
2.48953, 2;
0.730621, 2;
0.100145, 2;
1.61463, 2;
1.01767, 2;
0.354001, 2;
1.11823, 2;
2.91477, 2;
0.684293, 2;
2.57175, 2;
1.90758, 2;
1.83206, 2;
0.536582, 2;
0.463482, 2;
1.48963, 2;
0.0478385, 2;
0.873726, 2;
0.709775, 2;
2.30623, 2;
-0.0245095, 2;
2.40659, 2;
1.77092, 2;
0.865936, 2;
1.51216, 2;
1.20226, 2;
0.670765, 2;
-0.24595, 2;
0.556589, 2;
0.645752, 2;
2.36441, 2;
-0.775058, 2;
0.782945, 2;
1.48958, 2;
-0.290385, 2;
0.261036, 2;
1.15927, 2;
0.659783, 2;
1.63088, 2;
0.99208, 2;
1.02426, 2;
1.22476, 2;
2.9925, 2;
1.36942, 2;
-0.239302, 2;
1.31748, 2;
0.517988, 2;
0.054976, 2;
1.2561, 2;
3.66812, 2;
-1.00429, 2;
0.61032, 2;
-0.285595, 2;
2.7595, 2;
2.44587, 2;
1.29844, 2;
2.19295, 2;
0.450172, 2;
-0.343715, 2;
1.16234, 2;
0.336155, 2;
-0.0816423, 2;
0.179587, 2;
2.02894, 2;
-0.142357, 2;
-0.0742701, 2;
0.302045, 2;
1.40921, 2;
-0.246491, 2;
0.894885, 2;
0.17741, 2;
1.89036, 2;
0.522283, 2;
0.521553, 2;
0.0843063, 2;
2.49714, 2;
-0.397998, 2;
3.26861, 2;
0.38988, 2;
1.04045, 2;
1.75693, 2;
3.04539, 2;
1.68103, 2;
2.32975, 2;
0.552097, 2;
0.206828, 2;
-0.238546, 2;
2.09004, 2;
2.30419, 2;
0.737917, 2;
0.568676, 2;
2.35415, 2;
0.0869161, 2;
1.68744, 2;
3.51064, 2;
1.01412, 2;
2.583, 2;
1.68739, 2;
-0.071604, 2;
-0.555756, 2;
0.196668, 2;
1.25519, 2;
-0.0715336, 2;
2.34146, 2;
1.52188, 2;
2.1192, 2;
2.95149, 2;
-0.15166, 2;
1.67058, 2;
1.22769, 2;
-0.338065, 2;
0.405676, 2;
0.954392, 2;
0.977698, 2;
1.02163, 2;
0.382251, 2;
1.77857, 2;
1.11148, 2;
1.2441, 2;
0.805041, 2;
0.584661, 2;
0.0141502, 2;
0.953539, 2;
0.922017, 2;
0.598945, 2;
-0.30254, 2;
2.84259, 2;
0.0177124, 2;
1.26824, 2;
1.25463, 2;
0.383815, 2;
2.37385, 2;
1.69839, 2;
1.79373, 2;
1.69148, 2;
2.51034, 2;
1.46366, 2;
2.44445, 2;
0.558798, 2;
1.79294, 2;
1.91019, 2;
2.73854, 2;
2.33128, 2;
0.0588191, 2;
0.315612, 2;
1.97213, 2;
1.29466, 2;
2.31553, 2;
0.771084, 2;
1.53002, 2;
0.439405, 2;
0.566746, 2;
1.44724, 2;
0.366469, 2;
-0.712494, 2;
0.15496, 2;
1.30673, 2;
1.87577, 2;
0.0649609, 2;
1.04861, 2;
0.670969, 2;
1.80966, 2;
0.653745, 2;
-0.0721868, 2;
0.887304, 2;
0.466045, 2;
3.19897, 2;
3.22327, 2;
1.21383, 2;
1.26547, 2;
0.200117, 2;
-0.880617, 2;
1.24248, 2;
-1.15887, 2;
]

